%YAML 1.1
%TAG !u! tag:unity3d.com,2011:
--- !u!74 &7400000
AnimationClip:
  m_ObjectHideFlags: 0
  m_CorrespondingSourceObject: {fileID: 0}
  m_PrefabInstance: {fileID: 0}
  m_PrefabAsset: {fileID: 0}
  m_Name: Jump_Pj
  serializedVersion: 6
  m_Legacy: 0
  m_Compressed: 0
  m_UseHighQualityCurve: 1
  m_RotationCurves: []
  m_CompressedRotationCurves: []
  m_EulerCurves: []
  m_PositionCurves: []
  m_ScaleCurves: []
  m_FloatCurves: []
  m_PPtrCurves:
  - curve:
    - time: 0
      value: {fileID: 21300000, guid: 985ae0e7a8266024d81e2aac4601485a, type: 3}
    - time: 0.083333336
      value: {fileID: 21300000, guid: f55ed4b24f353bc4f8df88fc570f04e4, type: 3}
    - time: 0.16666667
      value: {fileID: 21300000, guid: 639cf33c1b6b62a45b6683f8c5896eca, type: 3}
    - time: 0.25
      value: {fileID: 21300000, guid: 69f3a2d7945ae72449a35f6532b6fe00, type: 3}
    - time: 0.33333334
      value: {fileID: 21300000, guid: 208e3b88a5d7d93489d902ab04a33b7d, type: 3}
    - time: 0.41666666
      value: {fileID: 21300000, guid: fbd2e504a7ba8824081ec08b3de7c0f3, type: 3}
    - time: 0.5
      value: {fileID: 21300000, guid: 70f74717ec5e9c54aae7d31d3d42b75e, type: 3}
    - time: 0.5833333
      value: {fileID: 21300000, guid: fd2a02983ba329947839cea5e53ce482, type: 3}
    - time: 0.6666667
      value: {fileID: 21300000, guid: ded191a8eafffee49aa240b1cce21463, type: 3}
    - time: 0.75
      value: {fileID: 21300000, guid: 650827b288409104fa3816b94291759c, type: 3}
    attribute: m_Sprite
    path: 
    classID: 212
    script: {fileID: 0}
  m_SampleRate: 12
  m_WrapMode: 0
  m_Bounds:
    m_Center: {x: 0, y: 0, z: 0}
    m_Extent: {x: 0, y: 0, z: 0}
  m_ClipBindingConstant:
    genericBindings:
    - serializedVersion: 2
      path: 0
      attribute: 0
      script: {fileID: 0}
      typeID: 212
      customType: 23
      isPPtrCurve: 1
    pptrCurveMapping:
    - {fileID: 21300000, guid: 985ae0e7a8266024d81e2aac4601485a, type: 3}
    - {fileID: 21300000, guid: f55ed4b24f353bc4f8df88fc570f04e4, type: 3}
    - {fileID: 21300000, guid: 639cf33c1b6b62a45b6683f8c5896eca, type: 3}
    - {fileID: 21300000, guid: 69f3a2d7945ae72449a35f6532b6fe00, type: 3}
    - {fileID: 21300000, guid: 208e3b88a5d7d93489d902ab04a33b7d, type: 3}
    - {fileID: 21300000, guid: fbd2e504a7ba8824081ec08b3de7c0f3, type: 3}
    - {fileID: 21300000, guid: 70f74717ec5e9c54aae7d31d3d42b75e, type: 3}
    - {fileID: 21300000, guid: fd2a02983ba329947839cea5e53ce482, type: 3}
    - {fileID: 21300000, guid: ded191a8eafffee49aa240b1cce21463, type: 3}
    - {fileID: 21300000, guid: 650827b288409104fa3816b94291759c, type: 3}
  m_AnimationClipSettings:
    serializedVersion: 2
    m_AdditiveReferencePoseClip: {fileID: 0}
    m_AdditiveReferencePoseTime: 0
    m_StartTime: 0
    m_StopTime: 0.8333333
    m_OrientationOffsetY: 0
    m_Level: 0
    m_CycleOffset: 0
    m_HasAdditiveReferencePose: 0
    m_LoopTime: 1
    m_LoopBlend: 0
    m_LoopBlendOrientation: 0
    m_LoopBlendPositionY: 0
    m_LoopBlendPositionXZ: 0
    m_KeepOriginalOrientation: 0
    m_KeepOriginalPositionY: 1
    m_KeepOriginalPositionXZ: 0
    m_HeightFromFeet: 0
    m_Mirror: 0
  m_EditorCurves: []
  m_EulerEditorCurves: []
  m_HasGenericRootTransform: 0
  m_HasMotionFloatCurves: 0
  m_Events: []
