%YAML 1.1
%TAG !u! tag:unity3d.com,2011:
--- !u!74 &7400000
AnimationClip:
  m_ObjectHideFlags: 0
  m_CorrespondingSourceObject: {fileID: 0}
  m_PrefabInstance: {fileID: 0}
  m_PrefabAsset: {fileID: 0}
  m_Name: Slide_Pj
  serializedVersion: 6
  m_Legacy: 0
  m_Compressed: 0
  m_UseHighQualityCurve: 1
  m_RotationCurves: []
  m_CompressedRotationCurves: []
  m_EulerCurves: []
  m_PositionCurves: []
  m_ScaleCurves: []
  m_FloatCurves:
  - curve:
      serializedVersion: 2
      m_Curve:
      - serializedVersion: 3
        time: 0
        value: -0.236215
        inSlope: 0
        outSlope: 0
        tangentMode: 136
        weightedMode: 0
        inWeight: 0
        outWeight: 0
      m_PreInfinity: 2
      m_PostInfinity: 2
      m_RotationOrder: 4
    attribute: m_Offset.y
    path: 
    classID: 61
    script: {fileID: 0}
  - curve:
      serializedVersion: 2
      m_Curve:
      - serializedVersion: 3
        time: 0
        value: 2.6970952
        inSlope: 0
        outSlope: 0
        tangentMode: 136
        weightedMode: 0
        inWeight: 0
        outWeight: 0
      m_PreInfinity: 2
      m_PostInfinity: 2
      m_RotationOrder: 4
    attribute: m_Size.y
    path: 
    classID: 61
    script: {fileID: 0}
  m_PPtrCurves:
  - curve:
    - time: 0
      value: {fileID: 21300000, guid: 5e83cff2313860f459aad76be6c42be4, type: 3}
    - time: 0.083333336
      value: {fileID: 21300000, guid: 8f1f05cc1a02c7f4082e3fd0734ea27a, type: 3}
    - time: 0.16666667
      value: {fileID: 21300000, guid: bffb58c78d9fad946ad5925df9d5048a, type: 3}
    - time: 0.25
      value: {fileID: 21300000, guid: 59bab3dcf02f2a740b2fdd3eda59b8ae, type: 3}
    - time: 0.33333334
      value: {fileID: 21300000, guid: 02b61b2fe5db9f54daec0bea4ba9e36b, type: 3}
    - time: 0.41666666
      value: {fileID: 21300000, guid: 23568cf96e1514845a84fd144c729e00, type: 3}
    - time: 0.5
      value: {fileID: 21300000, guid: 7aceb6c10b4c12645b768fdbdabc3108, type: 3}
    - time: 0.5833333
      value: {fileID: 21300000, guid: 76bc5155c8e9869408ab53d864ce78e7, type: 3}
    - time: 0.6666667
      value: {fileID: 21300000, guid: a6219b006c590e64095112fe94b6f207, type: 3}
    - time: 0.75
      value: {fileID: 21300000, guid: 7a0d33ca4c5e3324a952cb24e1913726, type: 3}
    attribute: m_Sprite
    path: 
    classID: 212
    script: {fileID: 0}
  m_SampleRate: 12
  m_WrapMode: 0
  m_Bounds:
    m_Center: {x: 0, y: 0, z: 0}
    m_Extent: {x: 0, y: 0, z: 0}
  m_ClipBindingConstant:
    genericBindings:
    - serializedVersion: 2
      path: 0
      attribute: 0
      script: {fileID: 0}
      typeID: 212
      customType: 23
      isPPtrCurve: 1
    - serializedVersion: 2
      path: 0
      attribute: 1872933342
      script: {fileID: 0}
      typeID: 61
      customType: 0
      isPPtrCurve: 0
    - serializedVersion: 2
      path: 0
      attribute: 2368279999
      script: {fileID: 0}
      typeID: 61
      customType: 0
      isPPtrCurve: 0
    pptrCurveMapping:
    - {fileID: 21300000, guid: 5e83cff2313860f459aad76be6c42be4, type: 3}
    - {fileID: 21300000, guid: 8f1f05cc1a02c7f4082e3fd0734ea27a, type: 3}
    - {fileID: 21300000, guid: bffb58c78d9fad946ad5925df9d5048a, type: 3}
    - {fileID: 21300000, guid: 59bab3dcf02f2a740b2fdd3eda59b8ae, type: 3}
    - {fileID: 21300000, guid: 02b61b2fe5db9f54daec0bea4ba9e36b, type: 3}
    - {fileID: 21300000, guid: 23568cf96e1514845a84fd144c729e00, type: 3}
    - {fileID: 21300000, guid: 7aceb6c10b4c12645b768fdbdabc3108, type: 3}
    - {fileID: 21300000, guid: 76bc5155c8e9869408ab53d864ce78e7, type: 3}
    - {fileID: 21300000, guid: a6219b006c590e64095112fe94b6f207, type: 3}
    - {fileID: 21300000, guid: 7a0d33ca4c5e3324a952cb24e1913726, type: 3}
  m_AnimationClipSettings:
    serializedVersion: 2
    m_AdditiveReferencePoseClip: {fileID: 0}
    m_AdditiveReferencePoseTime: 0
    m_StartTime: 0
    m_StopTime: 0.8333333
    m_OrientationOffsetY: 0
    m_Level: 0
    m_CycleOffset: 0
    m_HasAdditiveReferencePose: 0
    m_LoopTime: 1
    m_LoopBlend: 0
    m_LoopBlendOrientation: 0
    m_LoopBlendPositionY: 0
    m_LoopBlendPositionXZ: 0
    m_KeepOriginalOrientation: 0
    m_KeepOriginalPositionY: 1
    m_KeepOriginalPositionXZ: 0
    m_HeightFromFeet: 0
    m_Mirror: 0
  m_EditorCurves:
  - curve:
      serializedVersion: 2
      m_Curve:
      - serializedVersion: 3
        time: 0
        value: -0.236215
        inSlope: 0
        outSlope: 0
        tangentMode: 136
        weightedMode: 0
        inWeight: 0
        outWeight: 0
      m_PreInfinity: 2
      m_PostInfinity: 2
      m_RotationOrder: 4
    attribute: m_Offset.y
    path: 
    classID: 61
    script: {fileID: 0}
  - curve:
      serializedVersion: 2
      m_Curve:
      - serializedVersion: 3
        time: 0
        value: 2.6970952
        inSlope: 0
        outSlope: 0
        tangentMode: 136
        weightedMode: 0
        inWeight: 0
        outWeight: 0
      m_PreInfinity: 2
      m_PostInfinity: 2
      m_RotationOrder: 4
    attribute: m_Size.y
    path: 
    classID: 61
    script: {fileID: 0}
  m_EulerEditorCurves: []
  m_HasGenericRootTransform: 0
  m_HasMotionFloatCurves: 0
  m_Events: []
