[api-updater (non-obsolete-error-filter)] 30/09/2021 6:28:06 a. m. : Starting C:/Program Files/Unity/Hub/Editor/2020.3.16f1/Editor/Data/Tools/ScriptUpdater/APIUpdater.NonObsoleteApiUpdaterDetector.exe
[api-updater (non-obsolete-error-filter)] 
----------------------------------
jit/startup time      : 129.6856ms
moved types parse time: 52ms
candidates parse time : 1ms
C# parse time         : 238ms
candidates check time : 26ms
console write time    : 0ms

[api-updater (non-obsolete-error-filter)] 30/09/2021 6:30:33 a. m. : Starting C:/Program Files/Unity/Hub/Editor/2020.3.16f1/Editor/Data/Tools/ScriptUpdater/APIUpdater.NonObsoleteApiUpdaterDetector.exe
[api-updater (non-obsolete-error-filter)] 
----------------------------------
jit/startup time      : 61.8347ms
moved types parse time: 50ms
candidates parse time : 1ms
C# parse time         : 192ms
candidates check time : 27ms
console write time    : 0ms

[api-updater (non-obsolete-error-filter)] 30/09/2021 6:40:09 a. m. : Starting C:/Program Files/Unity/Hub/Editor/2020.3.16f1/Editor/Data/Tools/ScriptUpdater/APIUpdater.NonObsoleteApiUpdaterDetector.exe
[api-updater (non-obsolete-error-filter)] 
----------------------------------
jit/startup time      : 62.831ms
moved types parse time: 71ms
candidates parse time : 1ms
C# parse time         : 200ms
candidates check time : 28ms
console write time    : 0ms

[api-updater (non-obsolete-error-filter)] 30/09/2021 6:40:26 a. m. : Starting C:/Program Files/Unity/Hub/Editor/2020.3.16f1/Editor/Data/Tools/ScriptUpdater/APIUpdater.NonObsoleteApiUpdaterDetector.exe
[api-updater (non-obsolete-error-filter)] 
----------------------------------
jit/startup time      : 62.8319ms
moved types parse time: 50ms
candidates parse time : 1ms
C# parse time         : 187ms
candidates check time : 27ms
console write time    : 0ms

[api-updater (non-obsolete-error-filter)] 30/09/2021 9:15:00 a. m. : Starting C:/Program Files/Unity/Hub/Editor/2020.3.16f1/Editor/Data/Tools/ScriptUpdater/APIUpdater.NonObsoleteApiUpdaterDetector.exe
[api-updater (non-obsolete-error-filter)] 
----------------------------------
jit/startup time      : 65.8234ms
moved types parse time: 48ms
candidates parse time : 1ms
C# parse time         : 165ms
candidates check time : 24ms
console write time    : 0ms

[api-updater (non-obsolete-error-filter)] 30/09/2021 9:15:04 a. m. : Starting C:/Program Files/Unity/Hub/Editor/2020.3.16f1/Editor/Data/Tools/ScriptUpdater/APIUpdater.NonObsoleteApiUpdaterDetector.exe
[api-updater (non-obsolete-error-filter)] 
----------------------------------
jit/startup time      : 61.834ms
moved types parse time: 52ms
candidates parse time : 1ms
C# parse time         : 166ms
candidates check time : 24ms
console write time    : 0ms

[api-updater (non-obsolete-error-filter)] 30/09/2021 10:42:41 a. m. : Starting C:/Program Files/Unity/Hub/Editor/2020.3.16f1/Editor/Data/Tools/ScriptUpdater/APIUpdater.NonObsoleteApiUpdaterDetector.exe
[api-updater (non-obsolete-error-filter)] 
----------------------------------
jit/startup time      : 71.8323ms
moved types parse time: 50ms
candidates parse time : 1ms
C# parse time         : 187ms
candidates check time : 26ms
console write time    : 0ms

[api-updater (non-obsolete-error-filter)] 30/09/2021 10:55:00 a. m. : Starting C:/Program Files/Unity/Hub/Editor/2020.3.16f1/Editor/Data/Tools/ScriptUpdater/APIUpdater.NonObsoleteApiUpdaterDetector.exe
[api-updater (non-obsolete-error-filter)] 
----------------------------------
jit/startup time      : 60.8655ms
moved types parse time: 56ms
candidates parse time : 1ms
C# parse time         : 185ms
candidates check time : 29ms
console write time    : 0ms

[api-updater (non-obsolete-error-filter)] 30/09/2021 11:05:40 a. m. : Starting C:/Program Files/Unity/Hub/Editor/2020.3.16f1/Editor/Data/Tools/ScriptUpdater/APIUpdater.NonObsoleteApiUpdaterDetector.exe
[api-updater (non-obsolete-error-filter)] 
----------------------------------
jit/startup time      : 66.8225ms
moved types parse time: 51ms
candidates parse time : 1ms
C# parse time         : 176ms
candidates check time : 27ms
console write time    : 0ms

[api-updater (non-obsolete-error-filter)] 30/09/2021 11:05:51 a. m. : Starting C:/Program Files/Unity/Hub/Editor/2020.3.16f1/Editor/Data/Tools/ScriptUpdater/APIUpdater.NonObsoleteApiUpdaterDetector.exe
[api-updater (non-obsolete-error-filter)] 
----------------------------------
jit/startup time      : 60.8376ms
moved types parse time: 48ms
candidates parse time : 1ms
C# parse time         : 175ms
candidates check time : 26ms
console write time    : 0ms

[api-updater (non-obsolete-error-filter)] 30/09/2021 11:37:40 a. m. : Starting C:/Program Files/Unity/Hub/Editor/2020.3.16f1/Editor/Data/Tools/ScriptUpdater/APIUpdater.NonObsoleteApiUpdaterDetector.exe
[api-updater (non-obsolete-error-filter)] 
----------------------------------
jit/startup time      : 72.8043ms
moved types parse time: 51ms
candidates parse time : 1ms
C# parse time         : 179ms
candidates check time : 30ms
console write time    : 0ms

[api-updater (non-obsolete-error-filter)] 30/09/2021 11:38:26 a. m. : Starting C:/Program Files/Unity/Hub/Editor/2020.3.16f1/Editor/Data/Tools/ScriptUpdater/APIUpdater.NonObsoleteApiUpdaterDetector.exe
[api-updater (non-obsolete-error-filter)] 
----------------------------------
jit/startup time      : 60.8354ms
moved types parse time: 48ms
candidates parse time : 1ms
C# parse time         : 176ms
candidates check time : 27ms
console write time    : 0ms

[api-updater (non-obsolete-error-filter)] 30/09/2021 11:38:36 a. m. : Starting C:/Program Files/Unity/Hub/Editor/2020.3.16f1/Editor/Data/Tools/ScriptUpdater/APIUpdater.NonObsoleteApiUpdaterDetector.exe
[api-updater (non-obsolete-error-filter)] 
----------------------------------
jit/startup time      : 60.8358ms
moved types parse time: 48ms
candidates parse time : 1ms
C# parse time         : 166ms
candidates check time : 26ms
console write time    : 0ms

[api-updater (non-obsolete-error-filter)] 30/09/2021 11:39:45 a. m. : Starting C:/Program Files/Unity/Hub/Editor/2020.3.16f1/Editor/Data/Tools/ScriptUpdater/APIUpdater.NonObsoleteApiUpdaterDetector.exe
[api-updater (non-obsolete-error-filter)] Exception caught while loading types from C:\Users\jeffr\Documents\UnityProjects\Practica_3_T2_N00022769\Library\ScriptAssemblies\Unity.TextMeshPro.Editor.dll (some types may not be loaded)
	Exception of type 'System.Reflection.ReflectionTypeLoadException' was thrown.
	  at (wrapper managed-to-native) System.Reflection.Assembly.GetTypes(System.Reflection.Assembly,bool)
  at System.Reflection.Assembly.GetTypes () [0x00000] in <695d1cc93cca45069c528c15c9fdd749>:0 
  at APIUpdater.NonObsoleteApiUpdaterDetector.ExtraInfoParser+<LoadTypesWithMovedFromAttributeAsync>d__3.MoveNext () [0x000c8] in <68bff7873e0e4aa69a14dfc30bebbe3e>:0 
	Could not load file or assembly 'UnityEditor.CoreModule, Version=0.0.0.0, Culture=neutral, PublicKeyToken=null' or one of its dependencies.

[api-updater (non-obsolete-error-filter)] 
----------------------------------
jit/startup time      : 73.316ms
moved types parse time: 51ms
candidates parse time : 1ms
C# parse time         : 193ms
candidates check time : 28ms
console write time    : 0ms

[api-updater (non-obsolete-error-filter)] 30/09/2021 11:40:06 a. m. : Starting C:/Program Files/Unity/Hub/Editor/2020.3.16f1/Editor/Data/Tools/ScriptUpdater/APIUpdater.NonObsoleteApiUpdaterDetector.exe
[api-updater (non-obsolete-error-filter)] 
----------------------------------
jit/startup time      : 63.3307ms
moved types parse time: 50ms
candidates parse time : 1ms
C# parse time         : 177ms
candidates check time : 28ms
console write time    : 0ms

[api-updater (non-obsolete-error-filter)] 30/09/2021 12:13:38 p. m. : Starting C:/Program Files/Unity/Hub/Editor/2020.3.16f1/Editor/Data/Tools/ScriptUpdater/APIUpdater.NonObsoleteApiUpdaterDetector.exe
[api-updater (non-obsolete-error-filter)] 
----------------------------------
jit/startup time      : 78.876ms
moved types parse time: 50ms
candidates parse time : 1ms
C# parse time         : 192ms
candidates check time : 27ms
console write time    : 0ms

[api-updater (non-obsolete-error-filter)] 30/09/2021 12:14:13 p. m. : Starting C:/Program Files/Unity/Hub/Editor/2020.3.16f1/Editor/Data/Tools/ScriptUpdater/APIUpdater.NonObsoleteApiUpdaterDetector.exe
[api-updater (non-obsolete-error-filter)] 
----------------------------------
jit/startup time      : 59.8385ms
moved types parse time: 50ms
candidates parse time : 1ms
C# parse time         : 175ms
candidates check time : 26ms
console write time    : 0ms

[api-updater (non-obsolete-error-filter)] 30/09/2021 12:45:03 p. m. : Starting C:/Program Files/Unity/Hub/Editor/2020.3.16f1/Editor/Data/Tools/ScriptUpdater/APIUpdater.NonObsoleteApiUpdaterDetector.exe
[api-updater (non-obsolete-error-filter)] 
----------------------------------
jit/startup time      : 61.8343ms
moved types parse time: 49ms
candidates parse time : 1ms
C# parse time         : 174ms
candidates check time : 27ms
console write time    : 0ms

